…
## Isolate Numeric Variables for clustering

I will create a new data frame that will contain the numerical
variables. I plan on using Principle Competent Analysis for this data
set. I will go into further detail in a later step.

``` r
numerical_data<-screen_time %>%
  select(study_hours_per_day, social_media_hours, netflix_hours,
         sleep_hours, exercise_frequency, mental_health_rating)

print(numerical_data)
```

    ## # A tibble: 1,000 × 6
    ##    study_hours_per_day social_media_hours netflix_hours sleep_hours
    ##                  <dbl>              <dbl>         <dbl>       <dbl>
    ##  1                 0                  1.2           1.1         8  
    ##  2                 6.9                2.8           2.3         4.6
    ##  3                 1.4                3.1           1.3         8  
    ##  4                 1                  3.9           1           9.2
    ##  5                 5                  4.4           0.5         4.9
    ##  6                 7.2                1.3           0           7.4
    ##  7                 5.6                1.5           1.4         6.5
    ##  8                 4.3                1             2           4.6
    ##  9                 4.4                2.2           1.7         7.1
    ## 10                 4.8                3.1           1.3         7.5
    ## # ℹ 990 more rows
    ## # ℹ 2 more variables: exercise_frequency <dbl>, mental_health_rating <dbl>
…
